^C:\USERS\DEOME\DESKTOP\CP4\IJ-GR-12\MACHINELEARNING\MACHINELEARNING\DATAMANAGEMENT.CPP|C:\USERS\DEOME\DESKTOP\CP4\IJ-GR-12\MACHINELEARNING\MACHINELEARNING\KNN.CPP|C:\USERS\DEOME\DESKTOP\CP4\IJ-GR-12\MACHINELEARNING\MACHINELEARNING\MACHINELEARNING.CPP
C:\USERS\DEOME\DESKTOP\CP4\IJ-GR-12\MACHINELEARNING\MACHINELEARNING\DEBUG\VC141.PDB
C:\USERS\DEOME\DESKTOP\CP4\IJ-GR-12\MACHINELEARNING\MACHINELEARNING\DEBUG\VC141.IDB
C:\USERS\DEOME\DESKTOP\CP4\IJ-GR-12\MACHINELEARNING\MACHINELEARNING\DEBUG\MACHINELEARNING.OBJ
C:\USERS\DEOME\DESKTOP\CP4\IJ-GR-12\MACHINELEARNING\MACHINELEARNING\DEBUG\KNN.OBJ
C:\USERS\DEOME\DESKTOP\CP4\IJ-GR-12\MACHINELEARNING\MACHINELEARNING\DEBUG\DATAMANAGEMENT.OBJ
^C:\USERS\DEOME\DESKTOP\CP4\IJ-GR-12\MACHINELEARNING\MACHINELEARNING\LINEARREGRESSION.CPP|C:\USERS\DEOME\DESKTOP\CP4\IJ-GR-12\MACHINELEARNING\MACHINELEARNING\MACHINELEARNING.CPP
C:\USERS\DEOME\DESKTOP\CP4\IJ-GR-12\MACHINELEARNING\MACHINELEARNING\DEBUG\VC141.PDB
C:\USERS\DEOME\DESKTOP\CP4\IJ-GR-12\MACHINELEARNING\MACHINELEARNING\DEBUG\VC141.IDB
C:\USERS\DEOME\DESKTOP\CP4\IJ-GR-12\MACHINELEARNING\MACHINELEARNING\DEBUG\MACHINELEARNING.OBJ
C:\USERS\DEOME\DESKTOP\CP4\IJ-GR-12\MACHINELEARNING\MACHINELEARNING\DEBUG\LINEARREGRESSION.OBJ
^C:\USERS\DEOME\DESKTOP\CP4\IJ-GR-12\MACHINELEARNING\MACHINELEARNING\LINEARREGRESSION.CPP|C:\USERS\DEOME\DESKTOP\CP4\IJ-GR-12\MACHINELEARNING\MACHINELEARNING\LOGISTICREGRESSION.CPP|C:\USERS\DEOME\DESKTOP\CP4\IJ-GR-12\MACHINELEARNING\MACHINELEARNING\MACHINELEARNING.CPP
C:\USERS\DEOME\DESKTOP\CP4\IJ-GR-12\MACHINELEARNING\MACHINELEARNING\DEBUG\VC141.PDB
C:\USERS\DEOME\DESKTOP\CP4\IJ-GR-12\MACHINELEARNING\MACHINELEARNING\DEBUG\VC141.IDB
C:\USERS\DEOME\DESKTOP\CP4\IJ-GR-12\MACHINELEARNING\MACHINELEARNING\DEBUG\MACHINELEARNING.OBJ
C:\USERS\DEOME\DESKTOP\CP4\IJ-GR-12\MACHINELEARNING\MACHINELEARNING\DEBUG\LOGISTICREGRESSION.OBJ
C:\USERS\DEOME\DESKTOP\CP4\IJ-GR-12\MACHINELEARNING\MACHINELEARNING\DEBUG\LINEARREGRESSION.OBJ
^C:\USERS\DEOME\DESKTOP\CP4\IJ-GR-12\MACHINELEARNING\MACHINELEARNING\DATAMANAGEMENT.CPP|C:\USERS\DEOME\DESKTOP\CP4\IJ-GR-12\MACHINELEARNING\MACHINELEARNING\KNN.CPP|C:\USERS\DEOME\DESKTOP\CP4\IJ-GR-12\MACHINELEARNING\MACHINELEARNING\LINEARREGRESSION.CPP|C:\USERS\DEOME\DESKTOP\CP4\IJ-GR-12\MACHINELEARNING\MACHINELEARNING\LOGISTICREGRESSION.CPP|C:\USERS\DEOME\DESKTOP\CP4\IJ-GR-12\MACHINELEARNING\MACHINELEARNING\MACHINELEARNING.CPP
C:\USERS\DEOME\DESKTOP\CP4\IJ-GR-12\MACHINELEARNING\MACHINELEARNING\DEBUG\VC141.PDB
C:\USERS\DEOME\DESKTOP\CP4\IJ-GR-12\MACHINELEARNING\MACHINELEARNING\DEBUG\VC141.IDB
C:\USERS\DEOME\DESKTOP\CP4\IJ-GR-12\MACHINELEARNING\MACHINELEARNING\DEBUG\MACHINELEARNING.OBJ
C:\USERS\DEOME\DESKTOP\CP4\IJ-GR-12\MACHINELEARNING\MACHINELEARNING\DEBUG\LOGISTICREGRESSION.OBJ
C:\USERS\DEOME\DESKTOP\CP4\IJ-GR-12\MACHINELEARNING\MACHINELEARNING\DEBUG\LINEARREGRESSION.OBJ
C:\USERS\DEOME\DESKTOP\CP4\IJ-GR-12\MACHINELEARNING\MACHINELEARNING\DEBUG\KNN.OBJ
C:\USERS\DEOME\DESKTOP\CP4\IJ-GR-12\MACHINELEARNING\MACHINELEARNING\DEBUG\DATAMANAGEMENT.OBJ
^C:\USERS\DEOME\DESKTOP\CP4\IJ-GR-12\MACHINELEARNING\MACHINELEARNING\KNN.CPP|C:\USERS\DEOME\DESKTOP\CP4\IJ-GR-12\MACHINELEARNING\MACHINELEARNING\MACHINELEARNING.CPP
C:\USERS\DEOME\DESKTOP\CP4\IJ-GR-12\MACHINELEARNING\MACHINELEARNING\DEBUG\VC141.PDB
C:\USERS\DEOME\DESKTOP\CP4\IJ-GR-12\MACHINELEARNING\MACHINELEARNING\DEBUG\VC141.IDB
C:\USERS\DEOME\DESKTOP\CP4\IJ-GR-12\MACHINELEARNING\MACHINELEARNING\DEBUG\MACHINELEARNING.OBJ
C:\USERS\DEOME\DESKTOP\CP4\IJ-GR-12\MACHINELEARNING\MACHINELEARNING\DEBUG\KNN.OBJ
^C:\USERS\DEOME\DESKTOP\CP4\IJ-GR-12\MACHINELEARNING\MACHINELEARNING\DATAMANAGEMENT.CPP|C:\USERS\DEOME\DESKTOP\CP4\IJ-GR-12\MACHINELEARNING\MACHINELEARNING\MACHINELEARNING.CPP|C:\USERS\DEOME\DESKTOP\CP4\IJ-GR-12\MACHINELEARNING\MACHINELEARNING\SCREEN.CPP
C:\USERS\DEOME\DESKTOP\CP4\IJ-GR-12\MACHINELEARNING\MACHINELEARNING\DEBUG\VC141.PDB
C:\USERS\DEOME\DESKTOP\CP4\IJ-GR-12\MACHINELEARNING\MACHINELEARNING\DEBUG\VC141.IDB
C:\USERS\DEOME\DESKTOP\CP4\IJ-GR-12\MACHINELEARNING\MACHINELEARNING\DEBUG\DATAMANAGEMENT.OBJ
C:\USERS\DEOME\DESKTOP\CP4\IJ-GR-12\MACHINELEARNING\MACHINELEARNING\DEBUG\SCREEN.OBJ
C:\USERS\DEOME\DESKTOP\CP4\IJ-GR-12\MACHINELEARNING\MACHINELEARNING\DEBUG\MACHINELEARNING.OBJ
^C:\USERS\DEOME\DESKTOP\CP4\IJ-GR-12\MACHINELEARNING\MACHINELEARNING\LOGISTICREGRESSION.CPP|C:\USERS\DEOME\DESKTOP\CP4\IJ-GR-12\MACHINELEARNING\MACHINELEARNING\MACHINELEARNING.CPP
C:\USERS\DEOME\DESKTOP\CP4\IJ-GR-12\MACHINELEARNING\MACHINELEARNING\DEBUG\VC141.PDB
C:\USERS\DEOME\DESKTOP\CP4\IJ-GR-12\MACHINELEARNING\MACHINELEARNING\DEBUG\VC141.IDB
C:\USERS\DEOME\DESKTOP\CP4\IJ-GR-12\MACHINELEARNING\MACHINELEARNING\DEBUG\MACHINELEARNING.OBJ
C:\USERS\DEOME\DESKTOP\CP4\IJ-GR-12\MACHINELEARNING\MACHINELEARNING\DEBUG\LOGISTICREGRESSION.OBJ
^C:\USERS\DEOME\DESKTOP\CP4\IJ-GR-12\MACHINELEARNING\MACHINELEARNING\ALGORITHMSTRATEGY.CPP|C:\USERS\DEOME\DESKTOP\CP4\IJ-GR-12\MACHINELEARNING\MACHINELEARNING\LOGISTICREGRESSION.CPP|C:\USERS\DEOME\DESKTOP\CP4\IJ-GR-12\MACHINELEARNING\MACHINELEARNING\MACHINELEARNING.CPP
C:\USERS\DEOME\DESKTOP\CP4\IJ-GR-12\MACHINELEARNING\MACHINELEARNING\DEBUG\VC141.PDB
C:\USERS\DEOME\DESKTOP\CP4\IJ-GR-12\MACHINELEARNING\MACHINELEARNING\DEBUG\VC141.IDB
C:\USERS\DEOME\DESKTOP\CP4\IJ-GR-12\MACHINELEARNING\MACHINELEARNING\DEBUG\LOGISTICREGRESSION.OBJ
C:\USERS\DEOME\DESKTOP\CP4\IJ-GR-12\MACHINELEARNING\MACHINELEARNING\DEBUG\ALGORITHMSTRATEGY.OBJ
^C:\USERS\DEOME\DESKTOP\CP4\IJ-GR-12\MACHINELEARNING\MACHINELEARNING\KNN.CPP|C:\USERS\DEOME\DESKTOP\CP4\IJ-GR-12\MACHINELEARNING\MACHINELEARNING\LINEARREGRESSION.CPP|C:\USERS\DEOME\DESKTOP\CP4\IJ-GR-12\MACHINELEARNING\MACHINELEARNING\LOGISTICREGRESSION.CPP|C:\USERS\DEOME\DESKTOP\CP4\IJ-GR-12\MACHINELEARNING\MACHINELEARNING\SCREEN.CPP
C:\USERS\DEOME\DESKTOP\CP4\IJ-GR-12\MACHINELEARNING\MACHINELEARNING\DEBUG\VC141.PDB
C:\USERS\DEOME\DESKTOP\CP4\IJ-GR-12\MACHINELEARNING\MACHINELEARNING\DEBUG\VC141.IDB
C:\USERS\DEOME\DESKTOP\CP4\IJ-GR-12\MACHINELEARNING\MACHINELEARNING\DEBUG\LOGISTICREGRESSION.OBJ
C:\USERS\DEOME\DESKTOP\CP4\IJ-GR-12\MACHINELEARNING\MACHINELEARNING\DEBUG\LINEARREGRESSION.OBJ
C:\USERS\DEOME\DESKTOP\CP4\IJ-GR-12\MACHINELEARNING\MACHINELEARNING\DEBUG\KNN.OBJ
^C:\USERS\DEOME\DESKTOP\CP4\IJ-GR-12\MACHINELEARNING\MACHINELEARNING\ALGORITHMSTRATEGY.CPP|C:\USERS\DEOME\DESKTOP\CP4\IJ-GR-12\MACHINELEARNING\MACHINELEARNING\SCREEN.CPP
C:\USERS\DEOME\DESKTOP\CP4\IJ-GR-12\MACHINELEARNING\MACHINELEARNING\DEBUG\VC141.PDB
C:\USERS\DEOME\DESKTOP\CP4\IJ-GR-12\MACHINELEARNING\MACHINELEARNING\DEBUG\VC141.IDB
C:\USERS\DEOME\DESKTOP\CP4\IJ-GR-12\MACHINELEARNING\MACHINELEARNING\DEBUG\ALGORITHMSTRATEGY.OBJ
^C:\USERS\DEOME\DESKTOP\CP4\IJ-GR-12\MACHINELEARNING\MACHINELEARNING\ALGORITHMSTRATEGY.CPP|C:\USERS\DEOME\DESKTOP\CP4\IJ-GR-12\MACHINELEARNING\MACHINELEARNING\LINEARREGRESSION.CPP|C:\USERS\DEOME\DESKTOP\CP4\IJ-GR-12\MACHINELEARNING\MACHINELEARNING\LOGISTICREGRESSION.CPP|C:\USERS\DEOME\DESKTOP\CP4\IJ-GR-12\MACHINELEARNING\MACHINELEARNING\MACHINELEARNING.CPP|C:\USERS\DEOME\DESKTOP\CP4\IJ-GR-12\MACHINELEARNING\MACHINELEARNING\SCREEN.CPP
C:\USERS\DEOME\DESKTOP\CP4\IJ-GR-12\MACHINELEARNING\MACHINELEARNING\DEBUG\VC141.PDB
C:\USERS\DEOME\DESKTOP\CP4\IJ-GR-12\MACHINELEARNING\MACHINELEARNING\DEBUG\VC141.IDB
C:\USERS\DEOME\DESKTOP\CP4\IJ-GR-12\MACHINELEARNING\MACHINELEARNING\DEBUG\MACHINELEARNING.OBJ
C:\USERS\DEOME\DESKTOP\CP4\IJ-GR-12\MACHINELEARNING\MACHINELEARNING\DEBUG\LOGISTICREGRESSION.OBJ
C:\USERS\DEOME\DESKTOP\CP4\IJ-GR-12\MACHINELEARNING\MACHINELEARNING\DEBUG\LINEARREGRESSION.OBJ
C:\USERS\DEOME\DESKTOP\CP4\IJ-GR-12\MACHINELEARNING\MACHINELEARNING\DEBUG\ALGORITHMSTRATEGY.OBJ
^C:\USERS\DEOME\DESKTOP\CP4\IJ-GR-12\MACHINELEARNING\MACHINELEARNING\KNN.CPP|C:\USERS\DEOME\DESKTOP\CP4\IJ-GR-12\MACHINELEARNING\MACHINELEARNING\MACHINELEARNING.CPP|C:\USERS\DEOME\DESKTOP\CP4\IJ-GR-12\MACHINELEARNING\MACHINELEARNING\SCREEN.CPP
C:\USERS\DEOME\DESKTOP\CP4\IJ-GR-12\MACHINELEARNING\MACHINELEARNING\DEBUG\VC141.PDB
C:\USERS\DEOME\DESKTOP\CP4\IJ-GR-12\MACHINELEARNING\MACHINELEARNING\DEBUG\VC141.IDB
C:\USERS\DEOME\DESKTOP\CP4\IJ-GR-12\MACHINELEARNING\MACHINELEARNING\DEBUG\SCREEN.OBJ
C:\USERS\DEOME\DESKTOP\CP4\IJ-GR-12\MACHINELEARNING\MACHINELEARNING\DEBUG\MACHINELEARNING.OBJ
^C:\USERS\DEOME\DESKTOP\CP4\IJ-GR-12\MACHINELEARNING\MACHINELEARNING\KNN.CPP|C:\USERS\DEOME\DESKTOP\CP4\IJ-GR-12\MACHINELEARNING\MACHINELEARNING\LOGISTICREGRESSION.CPP|C:\USERS\DEOME\DESKTOP\CP4\IJ-GR-12\MACHINELEARNING\MACHINELEARNING\MACHINELEARNING.CPP|C:\USERS\DEOME\DESKTOP\CP4\IJ-GR-12\MACHINELEARNING\MACHINELEARNING\SCREEN.CPP
C:\USERS\DEOME\DESKTOP\CP4\IJ-GR-12\MACHINELEARNING\MACHINELEARNING\DEBUG\VC141.PDB
C:\USERS\DEOME\DESKTOP\CP4\IJ-GR-12\MACHINELEARNING\MACHINELEARNING\DEBUG\VC141.IDB
C:\USERS\DEOME\DESKTOP\CP4\IJ-GR-12\MACHINELEARNING\MACHINELEARNING\DEBUG\SCREEN.OBJ
C:\USERS\DEOME\DESKTOP\CP4\IJ-GR-12\MACHINELEARNING\MACHINELEARNING\DEBUG\MACHINELEARNING.OBJ
C:\USERS\DEOME\DESKTOP\CP4\IJ-GR-12\MACHINELEARNING\MACHINELEARNING\DEBUG\LOGISTICREGRESSION.OBJ
C:\USERS\DEOME\DESKTOP\CP4\IJ-GR-12\MACHINELEARNING\MACHINELEARNING\DEBUG\KNN.OBJ
^C:\USERS\DEOME\DESKTOP\CP4\IJ-GR-12\MACHINELEARNING\MACHINELEARNING\KNN.CPP|C:\USERS\DEOME\DESKTOP\CP4\IJ-GR-12\MACHINELEARNING\MACHINELEARNING\SCREEN.CPP
C:\USERS\DEOME\DESKTOP\CP4\IJ-GR-12\MACHINELEARNING\MACHINELEARNING\DEBUG\VC141.PDB
C:\USERS\DEOME\DESKTOP\CP4\IJ-GR-12\MACHINELEARNING\MACHINELEARNING\DEBUG\VC141.IDB
C:\USERS\DEOME\DESKTOP\CP4\IJ-GR-12\MACHINELEARNING\MACHINELEARNING\DEBUG\SCREEN.OBJ
C:\USERS\DEOME\DESKTOP\CP4\IJ-GR-12\MACHINELEARNING\MACHINELEARNING\DEBUG\KNN.OBJ
^C:\USERS\DEOME\DESKTOP\CP4\IJ-GR-12\MACHINELEARNING\MACHINELEARNING\KNN.CPP|C:\USERS\DEOME\DESKTOP\CP4\IJ-GR-12\MACHINELEARNING\MACHINELEARNING\LINEARREGRESSION.CPP|C:\USERS\DEOME\DESKTOP\CP4\IJ-GR-12\MACHINELEARNING\MACHINELEARNING\MACHINELEARNING.CPP|C:\USERS\DEOME\DESKTOP\CP4\IJ-GR-12\MACHINELEARNING\MACHINELEARNING\SCREEN.CPP
C:\USERS\DEOME\DESKTOP\CP4\IJ-GR-12\MACHINELEARNING\MACHINELEARNING\DEBUG\VC141.PDB
C:\USERS\DEOME\DESKTOP\CP4\IJ-GR-12\MACHINELEARNING\MACHINELEARNING\DEBUG\VC141.IDB
C:\USERS\DEOME\DESKTOP\CP4\IJ-GR-12\MACHINELEARNING\MACHINELEARNING\DEBUG\SCREEN.OBJ
C:\USERS\DEOME\DESKTOP\CP4\IJ-GR-12\MACHINELEARNING\MACHINELEARNING\DEBUG\MACHINELEARNING.OBJ
C:\USERS\DEOME\DESKTOP\CP4\IJ-GR-12\MACHINELEARNING\MACHINELEARNING\DEBUG\LINEARREGRESSION.OBJ
C:\USERS\DEOME\DESKTOP\CP4\IJ-GR-12\MACHINELEARNING\MACHINELEARNING\DEBUG\KNN.OBJ
^C:\USERS\DEOME\DESKTOP\CP4\IJ-GR-12\MACHINELEARNING\MACHINELEARNING\LINEARREGRESSION.CPP|C:\USERS\DEOME\DESKTOP\CP4\IJ-GR-12\MACHINELEARNING\MACHINELEARNING\MACHINELEARNING.CPP|C:\USERS\DEOME\DESKTOP\CP4\IJ-GR-12\MACHINELEARNING\MACHINELEARNING\SCREEN.CPP
C:\USERS\DEOME\DESKTOP\CP4\IJ-GR-12\MACHINELEARNING\MACHINELEARNING\DEBUG\VC141.PDB
C:\USERS\DEOME\DESKTOP\CP4\IJ-GR-12\MACHINELEARNING\MACHINELEARNING\DEBUG\VC141.IDB
C:\USERS\DEOME\DESKTOP\CP4\IJ-GR-12\MACHINELEARNING\MACHINELEARNING\DEBUG\SCREEN.OBJ
C:\USERS\DEOME\DESKTOP\CP4\IJ-GR-12\MACHINELEARNING\MACHINELEARNING\DEBUG\MACHINELEARNING.OBJ
C:\USERS\DEOME\DESKTOP\CP4\IJ-GR-12\MACHINELEARNING\MACHINELEARNING\DEBUG\LINEARREGRESSION.OBJ
^C:\USERS\DEOME\DESKTOP\CP4\IJ-GR-12\MACHINELEARNING\MACHINELEARNING\ALGORITHMSTRATEGY.CPP|C:\USERS\DEOME\DESKTOP\CP4\IJ-GR-12\MACHINELEARNING\MACHINELEARNING\KNN.CPP|C:\USERS\DEOME\DESKTOP\CP4\IJ-GR-12\MACHINELEARNING\MACHINELEARNING\LINEARREGRESSION.CPP|C:\USERS\DEOME\DESKTOP\CP4\IJ-GR-12\MACHINELEARNING\MACHINELEARNING\MACHINELEARNING.CPP|C:\USERS\DEOME\DESKTOP\CP4\IJ-GR-12\MACHINELEARNING\MACHINELEARNING\SCREEN.CPP
C:\USERS\DEOME\DESKTOP\CP4\IJ-GR-12\MACHINELEARNING\MACHINELEARNING\DEBUG\VC141.PDB
C:\USERS\DEOME\DESKTOP\CP4\IJ-GR-12\MACHINELEARNING\MACHINELEARNING\DEBUG\VC141.IDB
C:\USERS\DEOME\DESKTOP\CP4\IJ-GR-12\MACHINELEARNING\MACHINELEARNING\DEBUG\SCREEN.OBJ
C:\USERS\DEOME\DESKTOP\CP4\IJ-GR-12\MACHINELEARNING\MACHINELEARNING\DEBUG\MACHINELEARNING.OBJ
C:\USERS\DEOME\DESKTOP\CP4\IJ-GR-12\MACHINELEARNING\MACHINELEARNING\DEBUG\LINEARREGRESSION.OBJ
C:\USERS\DEOME\DESKTOP\CP4\IJ-GR-12\MACHINELEARNING\MACHINELEARNING\DEBUG\KNN.OBJ
C:\USERS\DEOME\DESKTOP\CP4\IJ-GR-12\MACHINELEARNING\MACHINELEARNING\DEBUG\ALGORITHMSTRATEGY.OBJ
^C:\USERS\DEOME\DESKTOP\CP4\IJ-GR-12\MACHINELEARNING\MACHINELEARNING\ALGORITHMSTRATEGY.CPP|C:\USERS\DEOME\DESKTOP\CP4\IJ-GR-12\MACHINELEARNING\MACHINELEARNING\KNN.CPP|C:\USERS\DEOME\DESKTOP\CP4\IJ-GR-12\MACHINELEARNING\MACHINELEARNING\LINEARREGRESSION.CPP|C:\USERS\DEOME\DESKTOP\CP4\IJ-GR-12\MACHINELEARNING\MACHINELEARNING\LOGISTICREGRESSION.CPP|C:\USERS\DEOME\DESKTOP\CP4\IJ-GR-12\MACHINELEARNING\MACHINELEARNING\MACHINELEARNING.CPP|C:\USERS\DEOME\DESKTOP\CP4\IJ-GR-12\MACHINELEARNING\MACHINELEARNING\SCREEN.CPP
C:\USERS\DEOME\DESKTOP\CP4\IJ-GR-12\MACHINELEARNING\MACHINELEARNING\DEBUG\VC141.PDB
C:\USERS\DEOME\DESKTOP\CP4\IJ-GR-12\MACHINELEARNING\MACHINELEARNING\DEBUG\VC141.IDB
C:\USERS\DEOME\DESKTOP\CP4\IJ-GR-12\MACHINELEARNING\MACHINELEARNING\DEBUG\SCREEN.OBJ
C:\USERS\DEOME\DESKTOP\CP4\IJ-GR-12\MACHINELEARNING\MACHINELEARNING\DEBUG\MACHINELEARNING.OBJ
C:\USERS\DEOME\DESKTOP\CP4\IJ-GR-12\MACHINELEARNING\MACHINELEARNING\DEBUG\LOGISTICREGRESSION.OBJ
C:\USERS\DEOME\DESKTOP\CP4\IJ-GR-12\MACHINELEARNING\MACHINELEARNING\DEBUG\LINEARREGRESSION.OBJ
C:\USERS\DEOME\DESKTOP\CP4\IJ-GR-12\MACHINELEARNING\MACHINELEARNING\DEBUG\KNN.OBJ
C:\USERS\DEOME\DESKTOP\CP4\IJ-GR-12\MACHINELEARNING\MACHINELEARNING\DEBUG\ALGORITHMSTRATEGY.OBJ
^C:\USERS\DEOME\DESKTOP\CP4\IJ-GR-12\MACHINELEARNING\MACHINELEARNING\ALGORITHMSTRATEGY.CPP|C:\USERS\DEOME\DESKTOP\CP4\IJ-GR-12\MACHINELEARNING\MACHINELEARNING\DATAMANAGEMENT.CPP|C:\USERS\DEOME\DESKTOP\CP4\IJ-GR-12\MACHINELEARNING\MACHINELEARNING\KNN.CPP|C:\USERS\DEOME\DESKTOP\CP4\IJ-GR-12\MACHINELEARNING\MACHINELEARNING\LINEARREGRESSION.CPP|C:\USERS\DEOME\DESKTOP\CP4\IJ-GR-12\MACHINELEARNING\MACHINELEARNING\LOGISTICREGRESSION.CPP|C:\USERS\DEOME\DESKTOP\CP4\IJ-GR-12\MACHINELEARNING\MACHINELEARNING\MACHINELEARNING.CPP|C:\USERS\DEOME\DESKTOP\CP4\IJ-GR-12\MACHINELEARNING\MACHINELEARNING\SCREEN.CPP
C:\USERS\DEOME\DESKTOP\CP4\IJ-GR-12\MACHINELEARNING\MACHINELEARNING\DEBUG\VC141.PDB
C:\USERS\DEOME\DESKTOP\CP4\IJ-GR-12\MACHINELEARNING\MACHINELEARNING\DEBUG\VC141.IDB
C:\USERS\DEOME\DESKTOP\CP4\IJ-GR-12\MACHINELEARNING\MACHINELEARNING\DEBUG\DATAMANAGEMENT.OBJ
C:\USERS\DEOME\DESKTOP\CP4\IJ-GR-12\MACHINELEARNING\MACHINELEARNING\DEBUG\SCREEN.OBJ
C:\USERS\DEOME\DESKTOP\CP4\IJ-GR-12\MACHINELEARNING\MACHINELEARNING\DEBUG\MACHINELEARNING.OBJ
C:\USERS\DEOME\DESKTOP\CP4\IJ-GR-12\MACHINELEARNING\MACHINELEARNING\DEBUG\LOGISTICREGRESSION.OBJ
C:\USERS\DEOME\DESKTOP\CP4\IJ-GR-12\MACHINELEARNING\MACHINELEARNING\DEBUG\LINEARREGRESSION.OBJ
C:\USERS\DEOME\DESKTOP\CP4\IJ-GR-12\MACHINELEARNING\MACHINELEARNING\DEBUG\KNN.OBJ
C:\USERS\DEOME\DESKTOP\CP4\IJ-GR-12\MACHINELEARNING\MACHINELEARNING\DEBUG\ALGORITHMSTRATEGY.OBJ
^C:\USERS\DEOME\DESKTOP\CP4\IJ-GR-12\MACHINELEARNING\MACHINELEARNING\ALGORITHMSTRATEGY.CPP
C:\USERS\DEOME\DESKTOP\CP4\IJ-GR-12\MACHINELEARNING\MACHINELEARNING\DEBUG\VC141.PDB
^C:\USERS\DEOME\DESKTOP\CP4\IJ-GR-12\MACHINELEARNING\MACHINELEARNING\DATAMANAGEMENT.CPP
C:\USERS\DEOME\DESKTOP\CP4\IJ-GR-12\MACHINELEARNING\MACHINELEARNING\DEBUG\VC141.PDB
^C:\USERS\DEOME\DESKTOP\CP4\IJ-GR-12\MACHINELEARNING\MACHINELEARNING\KNN.CPP|C:\USERS\DEOME\DESKTOP\CP4\IJ-GR-12\MACHINELEARNING\MACHINELEARNING\LINEARREGRESSION.CPP|C:\USERS\DEOME\DESKTOP\CP4\IJ-GR-12\MACHINELEARNING\MACHINELEARNING\LOGISTICREGRESSION.CPP|C:\USERS\DEOME\DESKTOP\CP4\IJ-GR-12\MACHINELEARNING\MACHINELEARNING\MACHINELEARNING.CPP|C:\USERS\DEOME\DESKTOP\CP4\IJ-GR-12\MACHINELEARNING\MACHINELEARNING\SCREEN.CPP
C:\USERS\DEOME\DESKTOP\CP4\IJ-GR-12\MACHINELEARNING\MACHINELEARNING\DEBUG\VC141.PDB
C:\USERS\DEOME\DESKTOP\CP4\IJ-GR-12\MACHINELEARNING\MACHINELEARNING\DEBUG\VC141.IDB
C:\USERS\DEOME\DESKTOP\CP4\IJ-GR-12\MACHINELEARNING\MACHINELEARNING\DEBUG\SCREEN.OBJ
C:\USERS\DEOME\DESKTOP\CP4\IJ-GR-12\MACHINELEARNING\MACHINELEARNING\DEBUG\MACHINELEARNING.OBJ
C:\USERS\DEOME\DESKTOP\CP4\IJ-GR-12\MACHINELEARNING\MACHINELEARNING\DEBUG\LOGISTICREGRESSION.OBJ
C:\USERS\DEOME\DESKTOP\CP4\IJ-GR-12\MACHINELEARNING\MACHINELEARNING\DEBUG\LINEARREGRESSION.OBJ
C:\USERS\DEOME\DESKTOP\CP4\IJ-GR-12\MACHINELEARNING\MACHINELEARNING\DEBUG\KNN.OBJ
^C:\USERS\DEOME\DESKTOP\CP4\IJ-GR-12\MACHINELEARNING\MACHINELEARNING\KNN.CPP
C:\USERS\DEOME\DESKTOP\CP4\IJ-GR-12\MACHINELEARNING\MACHINELEARNING\DEBUG\VC141.PDB
^C:\USERS\DEOME\DESKTOP\CP4\IJ-GR-12\MACHINELEARNING\MACHINELEARNING\LOGISTICREGRESSION.CPP|C:\USERS\DEOME\DESKTOP\CP4\IJ-GR-12\MACHINELEARNING\MACHINELEARNING\MACHINELEARNING.CPP|C:\USERS\DEOME\DESKTOP\CP4\IJ-GR-12\MACHINELEARNING\MACHINELEARNING\SCREEN.CPP
C:\USERS\DEOME\DESKTOP\CP4\IJ-GR-12\MACHINELEARNING\MACHINELEARNING\DEBUG\VC141.PDB
C:\USERS\DEOME\DESKTOP\CP4\IJ-GR-12\MACHINELEARNING\MACHINELEARNING\DEBUG\VC141.IDB
C:\USERS\DEOME\DESKTOP\CP4\IJ-GR-12\MACHINELEARNING\MACHINELEARNING\DEBUG\SCREEN.OBJ
C:\USERS\DEOME\DESKTOP\CP4\IJ-GR-12\MACHINELEARNING\MACHINELEARNING\DEBUG\MACHINELEARNING.OBJ
C:\USERS\DEOME\DESKTOP\CP4\IJ-GR-12\MACHINELEARNING\MACHINELEARNING\DEBUG\LOGISTICREGRESSION.OBJ
^C:\USERS\DEOME\DESKTOP\CP4\IJ-GR-12\MACHINELEARNING\MACHINELEARNING\LINEARREGRESSION.CPP|C:\USERS\DEOME\DESKTOP\CP4\IJ-GR-12\MACHINELEARNING\MACHINELEARNING\LOGISTICREGRESSION.CPP|C:\USERS\DEOME\DESKTOP\CP4\IJ-GR-12\MACHINELEARNING\MACHINELEARNING\MACHINELEARNING.CPP|C:\USERS\DEOME\DESKTOP\CP4\IJ-GR-12\MACHINELEARNING\MACHINELEARNING\SCREEN.CPP
C:\USERS\DEOME\DESKTOP\CP4\IJ-GR-12\MACHINELEARNING\MACHINELEARNING\DEBUG\VC141.PDB
C:\USERS\DEOME\DESKTOP\CP4\IJ-GR-12\MACHINELEARNING\MACHINELEARNING\DEBUG\VC141.IDB
C:\USERS\DEOME\DESKTOP\CP4\IJ-GR-12\MACHINELEARNING\MACHINELEARNING\DEBUG\SCREEN.OBJ
C:\USERS\DEOME\DESKTOP\CP4\IJ-GR-12\MACHINELEARNING\MACHINELEARNING\DEBUG\MACHINELEARNING.OBJ
C:\USERS\DEOME\DESKTOP\CP4\IJ-GR-12\MACHINELEARNING\MACHINELEARNING\DEBUG\LOGISTICREGRESSION.OBJ
C:\USERS\DEOME\DESKTOP\CP4\IJ-GR-12\MACHINELEARNING\MACHINELEARNING\DEBUG\LINEARREGRESSION.OBJ
^C:\USERS\DEOME\DESKTOP\CP4\IJ-GR-12\MACHINELEARNING\MACHINELEARNING\LINEARREGRESSION.CPP
C:\USERS\DEOME\DESKTOP\CP4\IJ-GR-12\MACHINELEARNING\MACHINELEARNING\DEBUG\VC141.PDB
^C:\USERS\DEOME\DESKTOP\CP4\IJ-GR-12\MACHINELEARNING\MACHINELEARNING\LOGISTICREGRESSION.CPP
C:\USERS\DEOME\DESKTOP\CP4\IJ-GR-12\MACHINELEARNING\MACHINELEARNING\DEBUG\VC141.PDB
^C:\USERS\DEOME\DESKTOP\CP4\IJ-GR-12\MACHINELEARNING\MACHINELEARNING\MACHINELEARNING.CPP|C:\USERS\DEOME\DESKTOP\CP4\IJ-GR-12\MACHINELEARNING\MACHINELEARNING\SCREEN.CPP
C:\USERS\DEOME\DESKTOP\CP4\IJ-GR-12\MACHINELEARNING\MACHINELEARNING\DEBUG\VC141.PDB
C:\USERS\DEOME\DESKTOP\CP4\IJ-GR-12\MACHINELEARNING\MACHINELEARNING\DEBUG\VC141.IDB
C:\USERS\DEOME\DESKTOP\CP4\IJ-GR-12\MACHINELEARNING\MACHINELEARNING\DEBUG\SCREEN.OBJ
C:\USERS\DEOME\DESKTOP\CP4\IJ-GR-12\MACHINELEARNING\MACHINELEARNING\DEBUG\MACHINELEARNING.OBJ
^C:\USERS\DEOME\DESKTOP\CP4\IJ-GR-12\MACHINELEARNING\MACHINELEARNING\MACHINELEARNING.CPP
C:\USERS\DEOME\DESKTOP\CP4\IJ-GR-12\MACHINELEARNING\MACHINELEARNING\DEBUG\VC141.PDB
^C:\USERS\DEOME\DESKTOP\CP4\IJ-GR-12\MACHINELEARNING\MACHINELEARNING\SCREEN.CPP
C:\USERS\DEOME\DESKTOP\CP4\IJ-GR-12\MACHINELEARNING\MACHINELEARNING\DEBUG\VC141.PDB
^C:\USERS\DEOME\DESKTOP\CV PROJECTS\MACHINELEARNING\MACHINELEARNING\ALGORITHMSTRATEGY.CPP|C:\USERS\DEOME\DESKTOP\CV PROJECTS\MACHINELEARNING\MACHINELEARNING\DATAMANAGEMENT.CPP|C:\USERS\DEOME\DESKTOP\CV PROJECTS\MACHINELEARNING\MACHINELEARNING\KNN.CPP|C:\USERS\DEOME\DESKTOP\CV PROJECTS\MACHINELEARNING\MACHINELEARNING\LINEARREGRESSION.CPP|C:\USERS\DEOME\DESKTOP\CV PROJECTS\MACHINELEARNING\MACHINELEARNING\LOGISTICREGRESSION.CPP|C:\USERS\DEOME\DESKTOP\CV PROJECTS\MACHINELEARNING\MACHINELEARNING\MACHINELEARNING.CPP|C:\USERS\DEOME\DESKTOP\CV PROJECTS\MACHINELEARNING\MACHINELEARNING\SCREEN.CPP
C:\USERS\DEOME\DESKTOP\CV PROJECTS\MACHINELEARNING\MACHINELEARNING\DEBUG\VC141.PDB
C:\USERS\DEOME\DESKTOP\CV PROJECTS\MACHINELEARNING\MACHINELEARNING\DEBUG\VC141.IDB
C:\USERS\DEOME\DESKTOP\CV PROJECTS\MACHINELEARNING\MACHINELEARNING\DEBUG\SCREEN.OBJ
C:\USERS\DEOME\DESKTOP\CV PROJECTS\MACHINELEARNING\MACHINELEARNING\DEBUG\MACHINELEARNING.OBJ
C:\USERS\DEOME\DESKTOP\CV PROJECTS\MACHINELEARNING\MACHINELEARNING\DEBUG\LOGISTICREGRESSION.OBJ
C:\USERS\DEOME\DESKTOP\CV PROJECTS\MACHINELEARNING\MACHINELEARNING\DEBUG\LINEARREGRESSION.OBJ
C:\USERS\DEOME\DESKTOP\CV PROJECTS\MACHINELEARNING\MACHINELEARNING\DEBUG\KNN.OBJ
C:\USERS\DEOME\DESKTOP\CV PROJECTS\MACHINELEARNING\MACHINELEARNING\DEBUG\DATAMANAGEMENT.OBJ
C:\USERS\DEOME\DESKTOP\CV PROJECTS\MACHINELEARNING\MACHINELEARNING\DEBUG\ALGORITHMSTRATEGY.OBJ
^C:\USERS\DEOME\DESKTOP\CV PROJECTS\MACHINELEARNING\MACHINELEARNING\ALGORITHMSTRATEGY.CPP
C:\USERS\DEOME\DESKTOP\CV PROJECTS\MACHINELEARNING\MACHINELEARNING\DEBUG\VC141.PDB
^C:\USERS\DEOME\DESKTOP\CV PROJECTS\MACHINELEARNING\MACHINELEARNING\DATAMANAGEMENT.CPP
C:\USERS\DEOME\DESKTOP\CV PROJECTS\MACHINELEARNING\MACHINELEARNING\DEBUG\VC141.PDB
^C:\USERS\DEOME\DESKTOP\CV PROJECTS\MACHINELEARNING\MACHINELEARNING\KNN.CPP
C:\USERS\DEOME\DESKTOP\CV PROJECTS\MACHINELEARNING\MACHINELEARNING\DEBUG\VC141.PDB
^C:\USERS\DEOME\DESKTOP\CV PROJECTS\MACHINELEARNING\MACHINELEARNING\LINEARREGRESSION.CPP
C:\USERS\DEOME\DESKTOP\CV PROJECTS\MACHINELEARNING\MACHINELEARNING\DEBUG\VC141.PDB
^C:\USERS\DEOME\DESKTOP\CV PROJECTS\MACHINELEARNING\MACHINELEARNING\LOGISTICREGRESSION.CPP
C:\USERS\DEOME\DESKTOP\CV PROJECTS\MACHINELEARNING\MACHINELEARNING\DEBUG\VC141.PDB
^C:\USERS\DEOME\DESKTOP\CV PROJECTS\MACHINELEARNING\MACHINELEARNING\MACHINELEARNING.CPP
C:\USERS\DEOME\DESKTOP\CV PROJECTS\MACHINELEARNING\MACHINELEARNING\DEBUG\VC141.PDB
^C:\USERS\DEOME\DESKTOP\CV PROJECTS\MACHINELEARNING\MACHINELEARNING\SCREEN.CPP
C:\USERS\DEOME\DESKTOP\CV PROJECTS\MACHINELEARNING\MACHINELEARNING\DEBUG\VC141.PDB
