^C:\USERS\DEOME\DESKTOP\CP4\IJ-GR-12\MACHINELEARNING\MACHINELEARNING\DEBUG\ALGORITHMSTRATEGY.OBJ|C:\USERS\DEOME\DESKTOP\CP4\IJ-GR-12\MACHINELEARNING\MACHINELEARNING\DEBUG\DATAMANAGEMENT.OBJ|C:\USERS\DEOME\DESKTOP\CP4\IJ-GR-12\MACHINELEARNING\MACHINELEARNING\DEBUG\KNN.OBJ|C:\USERS\DEOME\DESKTOP\CP4\IJ-GR-12\MACHINELEARNING\MACHINELEARNING\DEBUG\LINEARREGRESSION.OBJ|C:\USERS\DEOME\DESKTOP\CP4\IJ-GR-12\MACHINELEARNING\MACHINELEARNING\DEBUG\LOGISTICREGRESSION.OBJ|C:\USERS\DEOME\DESKTOP\CP4\IJ-GR-12\MACHINELEARNING\MACHINELEARNING\DEBUG\MACHINELEARNING.OBJ|C:\USERS\DEOME\DESKTOP\CP4\IJ-GR-12\MACHINELEARNING\MACHINELEARNING\DEBUG\SCREEN.OBJ
C:\USERS\DEOME\DESKTOP\CP4\IJ-GR-12\MACHINELEARNING\DEBUG\MACHINELEARNING.ILK
C:\USERS\DEOME\DESKTOP\CP4\IJ-GR-12\MACHINELEARNING\DEBUG\MACHINELEARNING.EXE
C:\USERS\DEOME\DESKTOP\CP4\IJ-GR-12\MACHINELEARNING\DEBUG\MACHINELEARNING.PDB
^C:\USERS\DEOME\DESKTOP\CV PROJECTS\MACHINELEARNING\MACHINELEARNING\DEBUG\ALGORITHMSTRATEGY.OBJ|C:\USERS\DEOME\DESKTOP\CV PROJECTS\MACHINELEARNING\MACHINELEARNING\DEBUG\DATAMANAGEMENT.OBJ|C:\USERS\DEOME\DESKTOP\CV PROJECTS\MACHINELEARNING\MACHINELEARNING\DEBUG\KNN.OBJ|C:\USERS\DEOME\DESKTOP\CV PROJECTS\MACHINELEARNING\MACHINELEARNING\DEBUG\LINEARREGRESSION.OBJ|C:\USERS\DEOME\DESKTOP\CV PROJECTS\MACHINELEARNING\MACHINELEARNING\DEBUG\LOGISTICREGRESSION.OBJ|C:\USERS\DEOME\DESKTOP\CV PROJECTS\MACHINELEARNING\MACHINELEARNING\DEBUG\MACHINELEARNING.OBJ|C:\USERS\DEOME\DESKTOP\CV PROJECTS\MACHINELEARNING\MACHINELEARNING\DEBUG\SCREEN.OBJ
C:\USERS\DEOME\DESKTOP\CV PROJECTS\MACHINELEARNING\DEBUG\MACHINELEARNING.EXE
C:\USERS\DEOME\DESKTOP\CV PROJECTS\MACHINELEARNING\DEBUG\MACHINELEARNING.ILK
C:\USERS\DEOME\DESKTOP\CV PROJECTS\MACHINELEARNING\DEBUG\MACHINELEARNING.PDB
